%YAML 1.1
%TAG !u! tag:unity3d.com,2011:
--- !u!1001 &100100000
Prefab:
  m_ObjectHideFlags: 1
  serializedVersion: 2
  m_Modification:
    m_TransformParent: {fileID: 0}
    m_Modifications: []
    m_RemovedComponents: []
  m_ParentPrefab: {fileID: 0}
  m_RootGameObject: {fileID: 1910917081717148}
  m_IsPrefabParent: 1
--- !u!1 &1910917081717148
GameObject:
  m_ObjectHideFlags: 0
  m_PrefabParentObject: {fileID: 0}
  m_PrefabInternal: {fileID: 100100000}
  serializedVersion: 5
  m_Component:
  - component: {fileID: 4112125346892890}
  - component: {fileID: 114918836355143896}
  m_Layer: 0
  m_Name: Apartment
  m_TagString: Untagged
  m_Icon: {fileID: 0}
  m_NavMeshLayer: 0
  m_StaticEditorFlags: 0
  m_IsActive: 1
--- !u!4 &4112125346892890
Transform:
  m_ObjectHideFlags: 1
  m_PrefabParentObject: {fileID: 0}
  m_PrefabInternal: {fileID: 100100000}
  m_GameObject: {fileID: 1910917081717148}
  m_LocalRotation: {x: 0, y: 0, z: 0, w: 1}
  m_LocalPosition: {x: 0, y: 0, z: 0}
  m_LocalScale: {x: 1, y: 1, z: 1}
  m_Children: []
  m_Father: {fileID: 0}
  m_RootOrder: 0
  m_LocalEulerAnglesHint: {x: 0, y: 0, z: 0}
--- !u!114 &114918836355143896
MonoBehaviour:
  m_ObjectHideFlags: 1
  m_PrefabParentObject: {fileID: 0}
  m_PrefabInternal: {fileID: 100100000}
  m_GameObject: {fileID: 1910917081717148}
  m_Enabled: 1
  m_EditorHideFlags: 0
  m_Script: {fileID: 11500000, guid: e578774b7096a3f46af7570c6288d619, type: 3}
  m_Name: 
  m_EditorClassIdentifier: 
  isSelected: 0
  hasExtrusion: 0
  extrusionCapped: 0
  extrusionMoveable: 0
  extrusionEditEdges: 0
  extrusionVisible: 1
  polygon: {fileID: 0}
  editableMesh: {fileID: 0}
  id: 0
  apartmentType: 
  rooms: []
  area: 0
  numberOfPeople: 0
  level: 0
  floorUnity: {fileID: 0}
  allignAreaWidth: 2
  alignCube: {fileID: 1881335429771894, guid: a75d50c61d5d4934f81cb42c16e099f5, type: 2}
  constrainError: All is ok!
  error: 0
